XFLR5 v6.07

Wing name :, CamFlyer
Wing polar name :, T1-9.0 m/s-VLM1
Freestream speed :, 9.0 m/s

alpha, CL, ICd, PCd, TCd, CY, GCm, GRm,GYm, IYm, QInf, XCP
 _________,  ________,   ________,  _________,  _________,  _________,  _________,  _________,  _________,  _________,  _________,  _________
   -3.000,  -0.205138,   0.006559,   0.056387,   0.062946,   0.000000,   0.068130,  -0.000000,  -0.000000,  -0.000000,    9.0000,     0.2026
   -2.500,  -0.168405,   0.005630,   0.055848,   0.061478,   0.000000,   0.062939,   0.000000,  -0.000000,  -0.000000,    9.0000,     0.2123
   -2.000,  -0.131610,   0.004875,   0.055499,   0.060374,   0.000000,   0.057753,   0.000000,  -0.000000,  -0.000000,    9.0000,     0.2273
   -1.500,  -0.094765,   0.004296,   0.055090,   0.059386,   0.000000,   0.052590,  -0.000000,  -0.000000,  -0.000000,    9.0000,     0.2542
   -1.000,  -0.057882,   0.003893,   0.054552,   0.058446,   0.000000,   0.047458,  -0.000000,   0.000000,   0.000000,    9.0000,     0.3155
   -0.500,  -0.020972,   0.003667,   0.053781,   0.057448,   0.000000,   0.042364,  -0.000000,  -0.000000,  -0.000000,    9.0000,     0.5928
    0.000,   0.015952,   0.003617,   0.052916,   0.056533,   0.000000,   0.037302,   0.000000,   0.000000,  -0.000000,    9.0000,    -0.4137
    0.500,   0.052878,   0.003744,   0.052014,   0.055758,   0.000000,   0.032267,   0.000000,  -0.000000,  -0.000000,    9.0000,    -0.0145
    1.000,   0.089795,   0.004048,   0.051048,   0.055097,   0.000000,   0.027265,  -0.000000,   0.000000,  -0.000000,    9.0000,     0.0564
    1.500,   0.126689,   0.004529,   0.049955,   0.054484,   0.000000,   0.022300,   0.000000,  -0.000000,  -0.000000,    9.0000,     0.0860
    2.000,   0.163549,   0.005186,   0.048911,   0.054097,   0.000000,   0.017363,   0.000000,  -0.000000,  -0.000000,    9.0000,     0.1023
    2.500,   0.200362,   0.006019,   0.047959,   0.053978,   0.000000,   0.012452,  -0.000000,   0.000000,  -0.000000,    9.0000,     0.1126
    3.000,   0.237118,   0.007027,   0.047086,   0.054113,   0.000000,   0.007569,   0.000000,   0.000000,   0.000000,    9.0000,     0.1197
    3.500,   0.273803,   0.008210,   0.046390,   0.054600,   0.000000,   0.002709,   0.000000,  -0.000000,  -0.000000,    9.0000,     0.1249
    4.000,   0.310406,   0.009567,   0.045965,   0.055532,   0.000000,  -0.002132,   0.000000,  -0.000000,  -0.000000,    9.0000,     0.1290
    4.500,   0.346915,   0.011097,   0.045720,   0.056817,   0.000000,  -0.006948,  -0.000000,   0.000000,   0.000000,    9.0000,     0.1322
    5.000,   0.383319,   0.012798,   0.045561,   0.058359,   0.000000,  -0.011729,  -0.000000,   0.000000,   0.000000,    9.0000,     0.1348
    5.500,   0.419604,   0.014670,   0.045481,   0.060151,   0.000000,  -0.016475,  -0.000000,   0.000000,   0.000000,    9.0000,     0.1370
    6.000,   0.455760,   0.016712,   0.045489,   0.062200,   0.000000,  -0.021185,   0.000000,  -0.000000,  -0.000000,    9.0000,     0.1389
    6.500,   0.491775,   0.018920,   0.045577,   0.064497,   0.000000,  -0.025856,  -0.000000,  -0.000000,  -0.000000,    9.0000,     0.1405
    7.000,   0.527638,   0.021295,   0.045701,   0.066996,   0.000000,  -0.030484,  -0.000000,  -0.000000,  -0.000000,    9.0000,     0.1419
    7.500,   0.563336,   0.023835,   0.045860,   0.069695,   0.000000,  -0.035067,   0.000000,   0.000000,   0.000000,    9.0000,     0.1432
    8.000,   0.598859,   0.026536,   0.046050,   0.072586,   0.000000,  -0.039605,   0.000000,  -0.000000,  -0.000000,    9.0000,     0.1444
    8.500,   0.634196,   0.029398,   0.046278,   0.075676,   0.000000,  -0.044095,   0.000000,   0.000000,  -0.000000,    9.0000,     0.1455
    9.000,   0.669334,   0.032419,   0.046572,   0.078991,   0.000000,  -0.048539,   0.000000,  -0.000000,   0.000000,    9.0000,     0.1465
    9.500,   0.704264,   0.035596,   0.046907,   0.082503,   0.000000,  -0.052934,  -0.000000,  -0.000000,  -0.000000,    9.0000,     0.1474
   10.000,   0.738974,   0.038926,   0.047275,   0.086201,   0.000000,  -0.057277,   0.000000,  -0.000000,  -0.000000,    9.0000,     0.1482


